{
  "images" : [
    {
      "filename" : "iconfinder_multimedia-04_2849832.png",
      "idiom" : "universal",
      "scale" : "1x"
    },
    {
      "filename" : "iconfinder_multimedia-04_2849832 (1).png",
      "idiom" : "universal",
      "scale" : "2x"
    },
    {
      "filename" : "iconfinder_multimedia-04_2849832 (2).png",
      "idiom" : "universal",
      "scale" : "3x"
    }
  ],
  "info" : {
    "author" : "xcode",
    "version" : 1
  }
}
